<?xml version="1.0" encoding="utf-8"?>
<!-- Generator: Adobe Illustrator 19.0.0, SVG Export Plug-In . SVG Version: 6.00 Build 0)  -->
<svg version="1.1" id="Layer_1" xmlns="http://www.w3.org/2000/svg" xmlns:xlink="http://www.w3.org/1999/xlink" x="0px" y="0px"
	 viewBox="-166 105.1 40.9 40.9" style="enable-background:new -166 105.1 40.9 40.9;" xml:space="preserve">
<style type="text/css">
	.st0{fill:#FFFFFF;}
</style>
<g>
	<path id="XMLID_4_" class="st0" d="M-145.6,146c-11.2,0-20.4-9.2-20.4-20.5c0-11.2,9.2-20.4,20.4-20.4c11.3,0,20.4,9.2,20.4,20.4
		C-125.1,136.8-134.3,146-145.6,146z M-145.6,106.3c-10.6,0-19.2,8.6-19.2,19.2s8.7,19.3,19.3,19.3s19.3-8.7,19.3-19.3
		C-126.3,114.9-134.9,106.3-145.6,106.3z M-143.9,138.3h-4.8c-0.3,0-0.6-0.3-0.6-0.6v-10.9h-1.7c-0.3,0-0.6-0.3-0.6-0.6v-4.1
		c0-0.3,0.3-0.6,0.6-0.6h1.7v-2.1c0-2.6,1.4-5.4,5.4-5.4h3.5c0.3,0,0.6,0.3,0.6,0.6v4c0,0.3-0.3,0.6-0.6,0.6h-2.6
		c-0.3,0-0.4,0.2-0.4,0.5v1.8h3.1c0.2,0,0.3,0.1,0.4,0.2c0.1,0.1,0.2,0.3,0.1,0.4l-0.4,4.1c0,0.3-0.3,0.5-0.6,0.5h-2.7v10.9
		C-143.3,138.1-143.5,138.3-143.9,138.3z M-148.1,137.2h3.6v-11c0-0.3,0.3-0.6,0.6-0.6h2.7l0.3-2.9h-3c-0.3,0-0.6-0.3-0.6-0.6v-2.4
		c0-1.2,0.8-1.7,1.6-1.7h2v-2.8h-3c-3.9,0-4.3,3.3-4.3,4.3v2.6c0,0.3-0.3,0.6-0.6,0.6h-1.7v2.9h1.7c0.3,0,0.6,0.3,0.6,0.6
		L-148.1,137.2L-148.1,137.2z"/>
</g>
</svg>
