<?xml version="1.0" encoding="utf-8"?>
<!-- Generator: Adobe Illustrator 19.0.0, SVG Export Plug-In . SVG Version: 6.00 Build 0)  -->
<svg version="1.1" id="Layer_1" xmlns="http://www.w3.org/2000/svg" xmlns:xlink="http://www.w3.org/1999/xlink" x="0px" y="0px"
	 viewBox="0 0 34.2 41.6" style="enable-background:new 0 0 34.2 41.6;" xml:space="preserve">
<style type="text/css">
	.st0{fill:#FCFCFC;}
</style>
<g id="XMLID_39_">
	<path id="XMLID_40_" class="st0" d="M26.6,14.8l6.3,1.7c0.7,0.1,1.1,0.9,0.9,1.5l-4.5,16.9c-0.1,0.6-0.7,1-1.3,1
		c-0.1,0-0.2,0-0.3-0.1l-22.9-6c-0.3-0.1-0.6-0.3-0.7-0.6c-0.1-0.3-0.2-0.7-0.1-1l0.5-1.9h1l-0.6,2.1c0,0.1,0,0.1,0,0.2
		s0.1,0.1,0.2,0.1l22.9,6l0,0c0.1,0.1,0.4-0.1,0.4-0.2l4.5-16.9c0.1-0.1-0.1-0.4-0.2-0.4l-6-1.6L26.6,14.8z"/>
</g>
<g id="XMLID_34_">
	<g id="XMLID_35_">
		<path id="XMLID_36_" class="st0" d="M24.9,25.8H1.3c-0.7,0-1.3-0.6-1.3-1.3V7.1c0-0.7,0.6-1.3,1.3-1.3h23.7c0.7,0,1.3,0.6,1.3,1.3
			v17.5C26.2,25.3,25.7,25.8,24.9,25.8z M1.3,6.8C1.1,6.8,1,6.9,1,7.1v17.5c0,0.1,0.1,0.3,0.3,0.3h23.7c0.1,0,0.3-0.1,0.3-0.3V7.1
			c0-0.1-0.1-0.3-0.3-0.3H1.3z"/>
	</g>
</g>
<path id="XMLID_31_" class="st0" d="M2.4,22.9v-2.1c0-0.1,0.1-0.2,0.1-0.3l5.6-4c0.1-0.1,0.4-0.1,0.7-0.1l3,1.8l6.6-4.2
	c0.1-0.1,0.4-0.1,0.7,0l4.3,2.8c0.1,0.1,0.1,0.2,0.1,0.4v5.7c0,0.2-0.2,0.4-0.5,0.4H3C2.7,23.4,2.4,23.1,2.4,22.9z M22.6,17.5
	L18.7,15l-6.6,4.2c-0.1,0.1-0.4,0.1-0.6,0l-3-1.8l-5.1,3.6v1.4h19L22.6,17.5L22.6,17.5z"/>
<path id="XMLID_28_" class="st0" d="M3.8,11.4c0-1.5,1.2-2.6,2.6-2.6s2.6,1.2,2.6,2.6S7.7,14,6.3,14S3.8,12.9,3.8,11.4z M4.5,11.4
	c0,1,0.8,1.8,1.8,1.8s1.8-0.8,1.8-1.8S7.4,9.6,6.3,9.6C5.3,9.6,4.5,10.4,4.5,11.4z"/>
</svg>
